C:\Users\AwetT\Documents\prog2projects\HospitalRegister\src\main\java\RemoveException.java
C:\Users\AwetT\Documents\prog2projects\HospitalRegister\src\main\java\Surgeon.java
C:\Users\AwetT\Documents\prog2projects\HospitalRegister\src\main\java\Department.java
C:\Users\AwetT\Documents\prog2projects\HospitalRegister\src\main\java\Employee.java
C:\Users\AwetT\Documents\prog2projects\HospitalRegister\src\main\java\Person.java
C:\Users\AwetT\Documents\prog2projects\HospitalRegister\src\main\java\Diagnosable.java
C:\Users\AwetT\Documents\prog2projects\HospitalRegister\src\main\java\GeneralPractitioner.java
C:\Users\AwetT\Documents\prog2projects\HospitalRegister\src\main\java\Patient.java
C:\Users\AwetT\Documents\prog2projects\HospitalRegister\src\main\java\Test.java
C:\Users\AwetT\Documents\prog2projects\HospitalRegister\src\main\java\Doctor.java
C:\Users\AwetT\Documents\prog2projects\HospitalRegister\src\main\java\Hospital.java
C:\Users\AwetT\Documents\prog2projects\HospitalRegister\src\main\java\Nurse.java
